{
    "Status": "success",
    "totalPage": 37,
    "pageSize": 20,
    "currentPage": 1,
    "totalCount": 732,
    "retMsg": "接口访问成功！",
    "results": [
        {
            "manuscriptId": "10419296",
            "title": "四川省人民政府关于任免张颖 谭新亚等职务的通知",
            "publishedTime": "2017/04/06 19:20:27",
            "wh": "[]号",
            "url": "/10462/10464/10716/10717/2017/4/6/10419296.shtml",
            "categoryId": "10717"
        },
        {
            "manuscriptId": "10419297",
            "title": "四川省人民政府关于聘任张祖芸为四川省人民政府参事的通知",
            "publishedTime": "2017/04/02 19:22:53",
            "wh": "[]号",
            "url": "/10462/10464/10716/10717/2017/4/6/10419297.shtml",
            "categoryId": "10717"
        },
        {
            "manuscriptId": "10372619",
            "title": "四川省人民政府办公厅关于印发2016年全省电子商务工作要点的通知",
            "publishedTime": "2016/03/11 10:48:12",
            "wh": "[]号",
            "url": "/10462/10464/10684/13601/2016/3/11/10372619.shtml",
            "categoryId": "13601"
        },
        {
            "manuscriptId": "10372440",
            "title": "四川省人民政府关于任免景世刚 范波等职务的通知",
            "publishedTime": "2016/03/10 09:30:13",
            "wh": "[]号",
            "url": "/10462/10464/10684/13601/2016/3/10/10372440.shtml",
            "categoryId": "13601"
        },
        {
            "manuscriptId": "10372438",
            "title": "四川省人民政府关于刘国强任职的通知",
            "publishedTime": "2016/03/08 09:17:46",
            "wh": "[]号",
            "url": "/10462/10464/10684/13601/2016/3/8/10372438.shtml",
            "categoryId": "13601"
        },
        {
            "manuscriptId": "10372437",
            "title": "四川省人民政府办公厅关于印发四川省简政放权放管结合优化服务2016年工作要点的通知",
            "publishedTime": "2016/03/07 09:16:02",
            "wh": "[]号",
            "url": "/10462/10464/10684/13601/2016/3/7/10372437.shtml",
            "categoryId": "13601"
        },
        {
            "manuscriptId": "10372436",
            "title": "四川省人民政府关于印发《四川省科技服务业发展规划（2016—2020年）》的通知",
            "publishedTime": "2016/03/05 09:14:55",
            "wh": "[]号",
            "url": "/10462/10464/10684/13601/2016/3/5/10372436.shtml",
            "categoryId": "13601"
        },
        {
            "manuscriptId": "10372435",
            "title": "四川省人民政府办公厅关于印发《政府工作报告》重点工作任务分工方案的通知",
            "publishedTime": "2016/03/03 09:12:12",
            "wh": "[]号",
            "url": "/10462/10464/10684/13601/2016/3/3/10372435.shtml",
            "categoryId": "13601"
        },
        {
            "manuscriptId": "10371537",
            "title": "四川省人民政府关于任免何延政 张继勇等职务的通知",
            "publishedTime": "2016/02/29 11:08:43",
            "wh": "[]号",
            "url": "/10462/10464/10684/13601/2016/2/29/10371537.shtml",
            "categoryId": "13601"
        },
        {
            "manuscriptId": "10370634",
            "title": "四川省人民政府关于聘任张崇明为四川省人民政府参事的通知",
            "publishedTime": "2016/02/24 14:36:24",
            "wh": "[]号",
            "url": "/10462/10464/10684/13601/2016/2/24/10370634.shtml",
            "categoryId": "13601"
        },
        {
            "manuscriptId": "10370633",
            "title": "四川省人民政府办公厅关于认定第三批农产品质量安全监管示范市、县的通知",
            "publishedTime": "2016/02/22 14:34:57",
            "wh": "[]号",
            "url": "/10462/10464/10684/13601/2016/2/22/10370633.shtml",
            "categoryId": "13601"
        },
        {
            "manuscriptId": "10369648",
            "title": "四川省人民政府关于下达2010年重大项目计划的通知",
            "publishedTime": "2016/02/18 15:53:30",
            "wh": "川府发[2010]9号",
            "url": "/10462/10464/10684/13652/2016/2/18/10369648.shtml",
            "categoryId": "13652"
        },
        {
            "manuscriptId": "10369542",
            "title": "四川省人民政府办公厅关于保留开发区有关问题的通知",
            "publishedTime": "2016/02/18 15:14:46",
            "wh": "川办函[2004]48号",
            "url": "/10462/10464/10684/13655/2016/2/18/10369542.shtml",
            "categoryId": "13655"
        },
        {
            "manuscriptId": "10370180",
            "title": "四川省人民政府办公厅关于认定四川省第四轮敬老模范县（市、区）的通知",
            "publishedTime": "2016/02/18 14:29:37",
            "wh": "[]号",
            "url": "/10462/10464/10684/13601/2016/2/18/10370180.shtml",
            "categoryId": "13601"
        },
        {
            "manuscriptId": "10369044",
            "title": "四川省人民政府办公厅关于四川省国际减灾委员会更名为四川省减灾委员会及调整有关组成人员的通知",
            "publishedTime": "2016/02/18 09:58:02",
            "wh": "川办函[2009]26号",
            "url": "/10462/10464/10684/13655/2016/2/18/10369044.shtml",
            "categoryId": "13655"
        },
        {
            "manuscriptId": "10368810",
            "title": "四川省人民政府办公厅转发人力资源社会保障厅等关于促进重点群体就业工作方案的通知",
            "publishedTime": "2016/02/17 14:40:48",
            "wh": "川办函[2010]101号",
            "url": "/10462/10464/10684/13655/2016/2/17/10368810.shtml",
            "categoryId": "13655"
        },
        {
            "manuscriptId": "10368637",
            "title": "张成明、李明昌等同志的聘任通知",
            "publishedTime": "2016/02/17 09:40:31",
            "wh": "川府人[2012]9号",
            "url": "/10462/10464/10684/13656/2016/2/17/10368637.shtml",
            "categoryId": "13656"
        },
        {
            "manuscriptId": "10368512",
            "title": "四川省人民政府办公厅关于做好省十二届人大一次会议人大代表建议和省政协十一届一次会议政协提案办理工作的通知",
            "publishedTime": "2016/02/16 15:59:48",
            "wh": "川办理[2013]1号",
            "url": "/10462/10464/10684/13656/2016/2/16/10368512.shtml",
            "categoryId": "13656"
        },
        {
            "manuscriptId": "10368491",
            "title": "陈炜、钟勤建等同志的任免通知",
            "publishedTime": "2016/02/16 15:17:51",
            "wh": "川府人[2009]19号",
            "url": "/10462/10464/10684/13656/2016/2/16/10368491.shtml",
            "categoryId": "13656"
        },
        {
            "manuscriptId": "10370177",
            "title": "四川省人民政府关于公布四川省重点保护野生植物名录的通知",
            "publishedTime": "2016/02/06 14:28:09",
            "wh": "[]号",
            "url": "/10462/10464/10684/13601/2016/2/6/10370177.shtml",
            "categoryId": "13601"
        }
    ]
}